module myapp

go 1.17

require (
	github.com/go-sql-driver/mysql v1.6.0 // indirect
	github.com/gorilla/mux v1.8.0 // indirect
	github.com/jinzhu/inflection v1.0.0 // indirect
	github.com/jinzhu/now v1.1.4 // indirect
	gorm.io/driver/mysql v1.2.2 // indirect
	gorm.io/gorm v1.22.4 // indirect
)
